%YAML 1.1
%TAG !u! tag:unity3d.com,2011:
--- !u!21 &2100000
Material:
  serializedVersion: 8
  m_ObjectHideFlags: 0
  m_CorrespondingSourceObject: {fileID: 0}
  m_PrefabInstance: {fileID: 0}
  m_PrefabAsset: {fileID: 0}
  m_Name: UnityStandardMat
  m_Shader: {fileID: 4800000, guid: 128c5f1edaefa4c4fb3f9f7a4615edb2, type: 3}
  m_Parent: {fileID: 0}
  m_ModifiedSerializedProperties: 0
  m_ValidKeywords: []
  m_InvalidKeywords:
  - _SEGMENTED_ON
  m_LightmapFlags: 4
  m_EnableInstancingVariants: 0
  m_DoubleSidedGI: 0
  m_CustomRenderQueue: -1
  stringTagMap: {}
  disabledShaderPasses: []
  m_LockedProperties: 
  m_SavedProperties:
    serializedVersion: 3
    m_TexEnvs:
    - _BumpMap:
        m_Texture: {fileID: 2800000, guid: 521c308d20761144aa83b9e97c6c2b0b, type: 3}
        m_Scale: {x: 1, y: 1}
        m_Offset: {x: 0, y: 0}
    - _MainTex:
        m_Texture: {fileID: 2800000, guid: b3c60eaeefcf8fa4497694fd326eeb23, type: 3}
        m_Scale: {x: 1, y: 1}
        m_Offset: {x: 0, y: 0}
    m_Ints: []
    m_Floats:
    - _AmbientCol: 0
    - _Clipped: 0
    - _ColBright: 0
    - _ColIntense: 1
    - _Lumin: 0
    - _MaxLight: 1
    - _MinLight: 0
    - _Offset: 0
    - _OtlWidth: 3.65
    - _Segmented: 1
    - _Shininess: 0.030000003
    - _ShnIntense: 0
    - _ShnOverlap: 0
    - _ShnRange: 0.15
    - _ShnSmooth: 0
    - _Steps: 1.8
    - _StpSmooth: 0
    m_Colors:
    - _Color: {r: 1, g: 1, b: 1, a: 1}
    - _OtlColor: {r: 0, g: 0, b: 0, a: 1}
    - _ShnColor: {r: 1, g: 1, b: 0, a: 1}
    - _SpecColor: {r: 0.6641791, g: 0.59111315, b: 0.49565604, a: 1}
  m_BuildTextureStacks: []
  m_AllowLocking: 1
