Scene Name, Timestamp, Message
AIMCATCH1,2024-05-17 10:11:04,Child caught ball incorrectly.
AIMCATCH1,2024-05-17 10:11:09,Stopped. Child stepped from mat.
AIMCATCH1,2024-05-17 10:11:12,Stopped. Child stepped from mat.
AIMCATCH1,2024-05-17 10:11:20,Child caught ball correctly.
AIMCATCH1,2024-05-17 10:11:23,Stopped. Child stepped from mat.
AIMCATCH1,2024-05-17 10:11:32,Child caught ball correctly.
AIMCATCH1,2024-05-17 10:11:37,Child caught ball correctly.
AIMCATCH1,2024-05-17 10:11:42,Child caught ball correctly.
AIMCATCH1,2024-05-17 10:11:49,Stopped. Child stepped from mat.
AIMCATCH2,2024-05-17 10:13:41,Stopped. Child did not land ball on the target.
AIMCATCH2,2024-05-17 10:14:18,Stopped. Child did not land ball on the target.
AIMCATCH2,2024-05-17 10:14:26,Ball landed correctly.
AIMCATCH2,2024-05-17 10:14:37,Stopped. Child did not land ball on the target.
AIMCATCH2,2024-05-17 10:14:44,Stopped. Child did not land ball on the target.
AIMCATCH2,2024-05-17 10:14:52,Stopped. Child did not land ball on the target.
AIMCATCH2,2024-05-17 10:14:57,Stopped. Child did not land ball on the target.
AIMCATCH2,2024-05-17 10:15:03,Stopped. Child did not land ball on the target.
AIMCATCH2,2024-05-17 10:15:10,Stopped. Child did not land ball on the target.
AIMCATCH2,2024-05-17 10:15:17,Stopped. Child stepped from mat.
AIMCATCH2,2024-05-17 10:15:17,Ten trials done. Setting to different scene.
BALANCE1,2024-05-17 10:16:02,Child started standing on the Left Foot. Trial 1.
BALANCE1,2024-05-17 10:16:04,Trial duration:1,516754 seconds.
BALANCE1,2024-05-17 10:16:35,Child started standing on the Left Foot. Trial 2.
BALANCE1,2024-05-17 10:16:37,Trial duration:30,01645 seconds.
BALANCE1,2024-05-17 10:16:37,Success.
BALANCE1,2024-05-17 10:16:41,Child started standing on the Left Foot. Trial 3.
BALANCE1,2024-05-17 10:16:41,Child started standing on the Left Foot. Trial 4.
BALANCE1,2024-05-17 10:16:49,Trial duration:8,466583 seconds.
BALANCE1,2024-05-17 10:16:50,Child started standing on the Left Foot. Trial 5.
BALANCE1,2024-05-17 10:16:51,Child started standing on the Left Foot. Trial 6.
BALANCE1,2024-05-17 10:16:51,Child started standing on the Left Foot. Trial 7.
BALANCE1,2024-05-17 10:16:52,Child started standing on the Left Foot. Trial 8.
BALANCE1,2024-05-17 10:16:56,Trial duration:6,116669 seconds.
BALANCE1,2024-05-17 10:16:56,Child started standing on the Left Foot. Trial 9.
BALANCE1,2024-05-17 10:16:56,Trial duration:0,3999634 seconds.
BALANCE1,2024-05-17 10:16:58,Child started standing on the Left Foot. Trial 10.
BALANCE1,2024-05-17 10:17:00,Trial duration:2,066772 seconds.
BALANCE2,2024-05-17 10:17:17,Child started walking
BALANCE2,2024-05-17 10:17:26,Step: 1 registered from index of bin: 106
BALANCE2,2024-05-17 10:17:27,Step: 106 registered as heel raise
BALANCE2,2024-05-17 10:17:27,Step: 105 registered as heel raise
BALANCE2,2024-05-17 10:17:27,Step: 2 registered from index of bin: 93
BALANCE2,2024-05-17 10:17:28,Step: 93 registered as heel raise
BALANCE2,2024-05-17 10:17:29,Step: 84 registered as heel raise
BALANCE2,2024-05-17 10:17:30,Step: 3 registered from index of bin: 70
BALANCE2,2024-05-17 10:17:31,Step: 70 registered as heel raise
BALANCE2,2024-05-17 10:17:32,Step: 4 registered from index of bin: 59
BALANCE2,2024-05-17 10:17:32,Step: 5 registered from index of bin: 45
BALANCE2,2024-05-17 10:17:33,Step: 6 registered from index of bin: 31
BALANCE2,2024-05-17 10:17:34,Step: 7 registered from index of bin: 17
BALANCE2,2024-05-17 10:17:36,Step: 13 registered as heel raise
BALANCE2,2024-05-17 10:17:37,Step: 8 registered as heel raise
BALANCE2,2024-05-17 10:17:38,Step: 9 registered as heel raise
BALANCE2,2024-05-17 10:17:39,Step: 16 registered as heel raise
BALANCE2,2024-05-17 10:17:39,Step: 8 registered from index of bin: 6
BALANCE2,2024-05-17 10:17:39,Step: 7 registered as heel raise
BALANCE2,2024-05-17 10:18:01,Step: 1 registered from index of bin: 109
BALANCE2,2024-05-17 10:18:01,Step: 109 registered as heel raise
BALANCE2,2024-05-17 10:18:02,Step: 2 registered from index of bin: 98
BALANCE2,2024-05-17 10:18:03,Step: 3 registered from index of bin: 86
BALANCE2,2024-05-17 10:18:03,Step: 98 registered as heel raise
BALANCE2,2024-05-17 10:18:04,Step: 4 registered from index of bin: 72
BALANCE2,2024-05-17 10:18:05,Step: 5 registered from index of bin: 58
BALANCE2,2024-05-17 10:18:06,Step: 6 registered from index of bin: 41
BALANCE2,2024-05-17 10:18:06,Step: 7 registered from index of bin: 25
BALANCE2,2024-05-17 10:18:08,Step: 8 registered from index of bin: 11
BALANCE2,2024-05-17 10:18:09,Step: 11 registered as heel raise
BALANCE3,2024-05-17 10:18:15,First echo on mat 1 detected in 506,5628.
BALANCE3,2024-05-17 10:18:23,First echo on mat 3 detected in 514,3295.
BALANCE3,2024-05-17 10:18:23,Incorrect trial. Child jumped over more mats.
BALANCE3,2024-05-17 10:18:25,First echo on mat 4 detected in 515,8292.
BALANCE3,2024-05-17 10:18:25,Time from mat 3 to mat 4: 1,499695s
BALANCE3,2024-05-17 10:18:29,First echo on mat 5 detected in 519,9294.
BALANCE3,2024-05-17 10:18:29,Time from mat 4 to mat 5: 4,100281s
BALANCE3,2024-05-17 10:18:47,First echo on mat 6 detected in 538,1958.
BALANCE3,2024-05-17 10:18:47,Time from mat 5 to mat 6: 18,26636s
BALANCE3,2024-05-17 10:18:47,Completed all mats.
BALANCE3,2024-05-17 10:18:50,First echo on mat 6 detected in 541,2124.
BALANCE3,2024-05-17 10:18:50,Incorrect trial. Child jumped over more mats.
BALANCE3,2024-05-17 10:18:50,Completed all mats.
BALANCE3,2024-05-17 10:18:54,First echo on mat 1 detected in 545,6459.
BALANCE3,2024-05-17 10:18:58,First echo on mat 2 detected in 549,5296.
BALANCE3,2024-05-17 10:18:58,Time from mat 1 to mat 2: 3,883667s
BALANCE3,2024-05-17 10:19:00,First echo on mat 3 detected in 551,6462.
BALANCE3,2024-05-17 10:19:00,Time from mat 2 to mat 3: 2,116638s
BALANCE3,2024-05-17 10:19:02,First echo on mat 4 detected in 553,7128.
BALANCE3,2024-05-17 10:19:02,Time from mat 3 to mat 4: 2,066589s
BALANCE3,2024-05-17 10:19:04,First echo on mat 5 detected in 555,6626.
BALANCE3,2024-05-17 10:19:04,Time from mat 4 to mat 5: 1,949768s
BALANCE3,2024-05-17 10:19:06,First echo on mat 6 detected in 557,6625.
BALANCE3,2024-05-17 10:19:06,Time from mat 5 to mat 6: 1,999878s
BALANCE3,2024-05-17 10:19:06,Completed all mats.
