%YAML 1.1
%TAG !u! tag:unity3d.com,2011:
--- !u!21 &2100000
Material:
  serializedVersion: 8
  m_ObjectHideFlags: 0
  m_CorrespondingSourceObject: {fileID: 0}
  m_PrefabInstance: {fileID: 0}
  m_PrefabAsset: {fileID: 0}
  m_Name: Ocean_material_01
  m_Shader: {fileID: 4800000, guid: 51bb15ebb01624844944395f241ad462, type: 3}
  m_Parent: {fileID: 0}
  m_ModifiedSerializedProperties: 0
  m_ValidKeywords: []
  m_InvalidKeywords: []
  m_LightmapFlags: 4
  m_EnableInstancingVariants: 1
  m_DoubleSidedGI: 1
  m_CustomRenderQueue: -1
  stringTagMap: {}
  disabledShaderPasses: []
  m_LockedProperties: 
  m_SavedProperties:
    serializedVersion: 3
    m_TexEnvs:
    - _1:
        m_Texture: {fileID: 2800000, guid: db27233ffd078ad489d3648c342cc8a0, type: 3}
        m_Scale: {x: 1, y: 1}
        m_Offset: {x: 0, y: 0}
    - _2:
        m_Texture: {fileID: 2800000, guid: d9cefbae3d27a9b408d20bae11a92acb, type: 3}
        m_Scale: {x: 1, y: 1}
        m_Offset: {x: 0, y: 0}
    - _3:
        m_Texture: {fileID: 2800000, guid: 45a3318a46efbcf42a074a7bc3d995f4, type: 3}
        m_Scale: {x: 1, y: 1}
        m_Offset: {x: 0, y: 0}
    - _AdditionalTexture:
        m_Texture: {fileID: 2800000, guid: 45a3318a46efbcf42a074a7bc3d995f4, type: 3}
        m_Scale: {x: 1, y: 1}
        m_Offset: {x: 0, y: 0}
    - _Addittionalfoam:
        m_Texture: {fileID: 2800000, guid: 3e9621926cb7ef440a683d33de90a485, type: 3}
        m_Scale: {x: 1, y: 1}
        m_Offset: {x: 0, y: 0}
    - _BumpMap:
        m_Texture: {fileID: 0}
        m_Scale: {x: 1, y: 1}
        m_Offset: {x: 0, y: 0}
    - _DepthTexture:
        m_Texture: {fileID: 2800000, guid: 3a3a4e769ce0b8b48b73d8a38226281c, type: 3}
        m_Scale: {x: 1, y: 1}
        m_Offset: {x: 0, y: 0}
    - _DetailAlbedoMap:
        m_Texture: {fileID: 0}
        m_Scale: {x: 1, y: 1}
        m_Offset: {x: 0, y: 0}
    - _DetailMask:
        m_Texture: {fileID: 0}
        m_Scale: {x: 1, y: 1}
        m_Offset: {x: 0, y: 0}
    - _DetailNormalMap:
        m_Texture: {fileID: 0}
        m_Scale: {x: 1, y: 1}
        m_Offset: {x: 0, y: 0}
    - _EmissionMap:
        m_Texture: {fileID: 0}
        m_Scale: {x: 1, y: 1}
        m_Offset: {x: 0, y: 0}
    - _FoamTexture:
        m_Texture: {fileID: 2800000, guid: 5f9b6fb959d19a241b3efbcaa90b5a77, type: 3}
        m_Scale: {x: 2.05, y: 1.12}
        m_Offset: {x: 0, y: 0}
    - _MainTex:
        m_Texture: {fileID: 0}
        m_Scale: {x: 1, y: 1}
        m_Offset: {x: 0, y: 0}
    - _MainTexture:
        m_Texture: {fileID: 2800000, guid: 38ab8aca4d89a4c4f93b72ac8d1e3f8e, type: 3}
        m_Scale: {x: 1, y: 1}
        m_Offset: {x: 0, y: 0}
    - _MetallicGlossMap:
        m_Texture: {fileID: 0}
        m_Scale: {x: 1, y: 1}
        m_Offset: {x: 0, y: 0}
    - _Noise:
        m_Texture: {fileID: 2800000, guid: d12dc5b6df76c6b42844432e6b9f4005, type: 3}
        m_Scale: {x: 1, y: 1}
        m_Offset: {x: 0, y: 0}
    - _OcclusionMap:
        m_Texture: {fileID: 0}
        m_Scale: {x: 1, y: 1}
        m_Offset: {x: 0, y: 0}
    - _ParallaxMap:
        m_Texture: {fileID: 0}
        m_Scale: {x: 1, y: 1}
        m_Offset: {x: 0, y: 0}
    - _Shine_texture:
        m_Texture: {fileID: 10300, guid: 0000000000000000f000000000000000, type: 0}
        m_Scale: {x: 1, y: 1}
        m_Offset: {x: 0, y: 0}
    - _Shinetexture:
        m_Texture: {fileID: 10300, guid: 0000000000000000f000000000000000, type: 0}
        m_Scale: {x: 1, y: 1}
        m_Offset: {x: 0, y: 0}
    m_Ints: []
    m_Floats:
    - _BumpScale: 1
    - _Cutoff: 0.5
    - _Depth: 199412
    - _DetailNormalMapScale: 1
    - _DstBlend: 0
    - _EdgeFoamLevel: 2.43
    - _EdgeFoamLevelDestination: 3.64
    - _EdgeFoamPower: 0.801
    - _FoamLevel: 1.2
    - _FoamLevelDestination: 2.25
    - _FoamLevel_copy: 4.84
    - _FoamOpacity: 0.94
    - _FoamPower: 1
    - _GlossMapScale: 1
    - _Glossiness: 0.5
    - _GlossyReflections: 1
    - _Metallic: 0
    - _Mode: 0
    - _NoiseLerpModifier: 0.0501
    - _Noiselevel: 0.0588
    - _OcclusionStrength: 1
    - _Parallax: 0.02
    - _ShinePower: 4
    - _Shine_opacity: 2.36
    - _SmoothnessTextureChannel: 0
    - _SpecularHighlights: 1
    - _SrcBlend: 1
    - _UVSec: 0
    - _WaterDepth: 18.29
    - _WaterOpacity: 0.303
    - _WaterOrientation: 2.96
    - _Whites_opacity: 0.898
    - _Whole_opacity: 0.803
    - _ZWrite: 1
    - _depth: 17.4
    - _depyh: -44.8
    - _node_2049: 7.95
    - _node_3109: 20.92
    - _node_4740: 34.5
    - _node_4740_copy: 10.16
    - _node_5487: 1000
    - _node_9095: 91
    - _node_9294: 0.752
    m_Colors:
    - _Color: {r: 0.7880324, g: 0.7205882, b: 1, a: 1}
    - _EmissionColor: {r: 0, g: 0, b: 0, a: 1}
    - _WaterColor: {r: 0.6509804, g: 0.8113208, b: 0.77646834, a: 1}
    - _node_3975: {r: 1, g: 1, b: 1, a: 1}
  m_BuildTextureStacks: []
  m_AllowLocking: 1
