%YAML 1.1
%TAG !u! tag:unity3d.com,2011:
--- !u!1 &100000
GameObject:
  m_ObjectHideFlags: 0
  m_CorrespondingSourceObject: {fileID: 0}
  m_PrefabInstance: {fileID: 0}
  m_PrefabAsset: {fileID: 0}
  serializedVersion: 6
  m_Component:
  - component: {fileID: 400000}
  - component: {fileID: 3300000}
  - component: {fileID: 2300000}
  - component: {fileID: 13600000}
  m_Layer: 0
  m_Name: well
  m_TagString: Untagged
  m_Icon: {fileID: 0}
  m_NavMeshLayer: 0
  m_StaticEditorFlags: 0
  m_IsActive: 1
--- !u!4 &400000
Transform:
  m_ObjectHideFlags: 0
  m_CorrespondingSourceObject: {fileID: 0}
  m_PrefabInstance: {fileID: 0}
  m_PrefabAsset: {fileID: 0}
  m_GameObject: {fileID: 100000}
  serializedVersion: 2
  m_LocalRotation: {x: 0, y: 0, z: 0, w: 1}
  m_LocalPosition: {x: 0, y: 0, z: 0}
  m_LocalScale: {x: 1, y: 1, z: 1}
  m_ConstrainProportionsScale: 0
  m_Children:
  - {fileID: 5847137318417700100}
  m_Father: {fileID: 0}
  m_LocalEulerAnglesHint: {x: 0, y: 0, z: 0}
--- !u!33 &3300000
MeshFilter:
  m_ObjectHideFlags: 0
  m_CorrespondingSourceObject: {fileID: 0}
  m_PrefabInstance: {fileID: 0}
  m_PrefabAsset: {fileID: 0}
  m_GameObject: {fileID: 100000}
  m_Mesh: {fileID: 4300002, guid: 39b90fbf6cb37384e8ee9aae4df41c96, type: 3}
--- !u!23 &2300000
MeshRenderer:
  m_ObjectHideFlags: 0
  m_CorrespondingSourceObject: {fileID: 0}
  m_PrefabInstance: {fileID: 0}
  m_PrefabAsset: {fileID: 0}
  m_GameObject: {fileID: 100000}
  m_Enabled: 1
  m_CastShadows: 1
  m_ReceiveShadows: 1
  m_DynamicOccludee: 1
  m_StaticShadowCaster: 0
  m_MotionVectors: 1
  m_LightProbeUsage: 0
  m_ReflectionProbeUsage: 1
  m_RayTracingMode: 2
  m_RayTraceProcedural: 0
  m_RayTracingAccelStructBuildFlagsOverride: 0
  m_RayTracingAccelStructBuildFlags: 1
  m_RenderingLayerMask: 1
  m_RendererPriority: 0
  m_Materials:
  - {fileID: 2100000, guid: 1342d175654ef0d4da3d8734b0c15ee7, type: 2}
  - {fileID: 2100000, guid: d84172363f35aea4a80c0fca3e0fcb36, type: 2}
  m_StaticBatchInfo:
    firstSubMesh: 0
    subMeshCount: 0
  m_StaticBatchRoot: {fileID: 0}
  m_ProbeAnchor: {fileID: 0}
  m_LightProbeVolumeOverride: {fileID: 0}
  m_ScaleInLightmap: 1
  m_ReceiveGI: 1
  m_PreserveUVs: 0
  m_IgnoreNormalsForChartDetection: 0
  m_ImportantGI: 0
  m_StitchLightmapSeams: 1
  m_SelectedEditorRenderState: 3
  m_MinimumChartSize: 4
  m_AutoUVMaxDistance: 0.5
  m_AutoUVMaxAngle: 89
  m_LightmapParameters: {fileID: 0}
  m_SortingLayerID: 0
  m_SortingLayer: 0
  m_SortingOrder: 0
  m_AdditionalVertexStreams: {fileID: 0}
--- !u!136 &13600000
CapsuleCollider:
  m_ObjectHideFlags: 0
  m_CorrespondingSourceObject: {fileID: 0}
  m_PrefabInstance: {fileID: 0}
  m_PrefabAsset: {fileID: 0}
  m_GameObject: {fileID: 100000}
  m_Material: {fileID: 0}
  m_IncludeLayers:
    serializedVersion: 2
    m_Bits: 0
  m_ExcludeLayers:
    serializedVersion: 2
    m_Bits: 0
  m_LayerOverridePriority: 0
  m_IsTrigger: 0
  m_ProvidesContacts: 0
  m_Enabled: 1
  serializedVersion: 2
  m_Radius: 0.76
  m_Height: 3.7
  m_Direction: 1
  m_Center: {x: 0, y: 1.0302316, z: -0.08873308}
--- !u!1001 &1468033462063480350
PrefabInstance:
  m_ObjectHideFlags: 0
  serializedVersion: 2
  m_Modification:
    serializedVersion: 3
    m_TransformParent: {fileID: 400000}
    m_Modifications:
    - target: {fileID: -6905088858139878848, guid: 39b90fbf6cb37384e8ee9aae4df41c96,
        type: 3}
      propertyPath: m_LocalPosition.y
      value: 0
      objectReference: {fileID: 0}
    - target: {fileID: -6905088858139878848, guid: 39b90fbf6cb37384e8ee9aae4df41c96,
        type: 3}
      propertyPath: m_LocalPosition.z
      value: -0.15
      objectReference: {fileID: 0}
    - target: {fileID: -6562066744935471810, guid: 39b90fbf6cb37384e8ee9aae4df41c96,
        type: 3}
      propertyPath: m_LocalPosition.x
      value: -701
      objectReference: {fileID: 0}
    - target: {fileID: -6562066744935471810, guid: 39b90fbf6cb37384e8ee9aae4df41c96,
        type: 3}
      propertyPath: m_LocalPosition.y
      value: 985
      objectReference: {fileID: 0}
    - target: {fileID: -6562066744935471810, guid: 39b90fbf6cb37384e8ee9aae4df41c96,
        type: 3}
      propertyPath: m_LocalPosition.z
      value: -265
      objectReference: {fileID: 0}
    - target: {fileID: -4216859302048453862, guid: 39b90fbf6cb37384e8ee9aae4df41c96,
        type: 3}
      propertyPath: m_LocalPosition.x
      value: -0.062066197
      objectReference: {fileID: 0}
    - target: {fileID: -4216859302048453862, guid: 39b90fbf6cb37384e8ee9aae4df41c96,
        type: 3}
      propertyPath: m_LocalPosition.y
      value: 1.1480341
      objectReference: {fileID: 0}
    - target: {fileID: -4216859302048453862, guid: 39b90fbf6cb37384e8ee9aae4df41c96,
        type: 3}
      propertyPath: m_LocalPosition.z
      value: -0.846195
      objectReference: {fileID: 0}
    - target: {fileID: -4216859302048453862, guid: 39b90fbf6cb37384e8ee9aae4df41c96,
        type: 3}
      propertyPath: m_LocalRotation.w
      value: 1
      objectReference: {fileID: 0}
    - target: {fileID: -4216859302048453862, guid: 39b90fbf6cb37384e8ee9aae4df41c96,
        type: 3}
      propertyPath: m_LocalRotation.x
      value: -0
      objectReference: {fileID: 0}
    - target: {fileID: -4216859302048453862, guid: 39b90fbf6cb37384e8ee9aae4df41c96,
        type: 3}
      propertyPath: m_LocalRotation.y
      value: -0
      objectReference: {fileID: 0}
    - target: {fileID: -4216859302048453862, guid: 39b90fbf6cb37384e8ee9aae4df41c96,
        type: 3}
      propertyPath: m_LocalRotation.z
      value: -0
      objectReference: {fileID: 0}
    - target: {fileID: -4216859302048453862, guid: 39b90fbf6cb37384e8ee9aae4df41c96,
        type: 3}
      propertyPath: m_LocalEulerAnglesHint.x
      value: 0
      objectReference: {fileID: 0}
    - target: {fileID: -4216859302048453862, guid: 39b90fbf6cb37384e8ee9aae4df41c96,
        type: 3}
      propertyPath: m_LocalEulerAnglesHint.y
      value: 0
      objectReference: {fileID: 0}
    - target: {fileID: -4216859302048453862, guid: 39b90fbf6cb37384e8ee9aae4df41c96,
        type: 3}
      propertyPath: m_LocalEulerAnglesHint.z
      value: 0
      objectReference: {fileID: 0}
    - target: {fileID: -4065943265151029386, guid: 39b90fbf6cb37384e8ee9aae4df41c96,
        type: 3}
      propertyPath: m_Name
      value: Water
      objectReference: {fileID: 0}
    - target: {fileID: -927199367670048503, guid: 39b90fbf6cb37384e8ee9aae4df41c96,
        type: 3}
      propertyPath: m_Name
      value: well
      objectReference: {fileID: 0}
    - target: {fileID: 4639804113666111201, guid: 39b90fbf6cb37384e8ee9aae4df41c96,
        type: 3}
      propertyPath: m_Name
      value: WellBody
      objectReference: {fileID: 0}
    m_RemovedComponents: []
    m_RemovedGameObjects:
    - {fileID: 4224801822505238522, guid: 39b90fbf6cb37384e8ee9aae4df41c96, type: 3}
    - {fileID: 3212038899491919487, guid: 39b90fbf6cb37384e8ee9aae4df41c96, type: 3}
    - {fileID: -8684251187902555887, guid: 39b90fbf6cb37384e8ee9aae4df41c96, type: 3}
    m_AddedGameObjects: []
    m_AddedComponents: []
  m_SourcePrefab: {fileID: 100100000, guid: 39b90fbf6cb37384e8ee9aae4df41c96, type: 3}
--- !u!4 &5847137318417700100 stripped
Transform:
  m_CorrespondingSourceObject: {fileID: -4216859302048453862, guid: 39b90fbf6cb37384e8ee9aae4df41c96,
    type: 3}
  m_PrefabInstance: {fileID: 1468033462063480350}
  m_PrefabAsset: {fileID: 0}
